{
  "results": [
    {
      "email": "Danny.eerens@bnnvara.nl",
      "lastUpdated": "2020-05-18 08:52:43.736996 +0000",
      "uuid": "bda59dc4-7412-4722-9fc5-94a450dcc924",
      "created": "2020-05-14 12:35:57.733912 +0000",
      "id": 4737,
      "primaryAddress": {
        "address2": null,
        "phone": null,
        "housenumber": "1",
        "country": "nederland",
        "zip": "1234AB",
        "streetname": "teststraat",
        "company": null,
        "city": "teststad",
        "address1": null,
        "zipPlus4": null,
        "stateAbbreviation": null,
        "housenumberAddition": ""
      },
      "relationNumber": 12345678,
      "subscriptions": {
        "newsletters": []
      }
    }
  ],
  "result_count": 1,
  "stat": "ok"
}