{
  "result": {
    "givenName": "Danny",
    "registrationSource": "Kassa_nl",
    "bio": "dit is mijn bio",
    "isVerified": true,
    "accountDeleteRequestTime": null,
    "email": "myemail@example.com",
    "emailVerified": "2020-03-29 13:36:39.990263 +0000",
    "lastUpdated": "2020-03-30 13:36:39.990263 +0000",
    "roles": [],
    "display": null,
    "isRegistered": true,
    "middleName": "de",
    "firstContact": "donation",
    "primaryAddress": {
      "phone": null,
      "housenumber": "111",
      "country": "NL",
      "zip": "0000ZZ",
      "streetname": "verzonnenAdres",
      "company": "bnnvara",
      "city": "verzonnenStad",
      "zipPlus4": null,
      "stateAbbreviation": null,
      "housenumberAddition": "a"
    },
    "accountDataRequestTime": null,
    "relationNumber": "123456",
    "communities": {
      "vroegevogels": {
        "showProfile": true
      },
      "kassa": {
        "showProfile": true,
        "categories": {
          "housekeeping_energy": true,
          "electronics_television": true,
          "leisure_garden": true,
          "warranty_insurance": true,
          "food_health": true,
          "holiday_travel": true,
          "cars_transport": true,
          "money_law": true,
          "shops_ecommerce": true
        },
        "notifications": {
          "notifyNewAnswers": true,
          "notifyNewQuestions": true,
          "notifyNewReactions": true
        }
      }
    },
    "consents": {
      "marketing": {
        "clientId": null,
        "granted": true,
        "context": null,
        "updated": "2020-03-30 13:19:00 +0000",
        "type": null
      },
      "tracking": {
        "granted": false,
        "updated": "2020-03-30 13:19:00 +0000"
      }
    },
    "uuid": "2df8ad57-fffd-4f02-882c-2821bd849bfc",
    "dateOfBirth": {
      "birthMonth": "12",
      "birthDay": "11",
      "birthYear": "1989"
    },
    "created": "2020-01-27 12:23:59.21952 +0000",
    "profiles": [],
    "isLockedOut": false,
    "username": "Qbrain",
    "deactivateAccount": null,
    "lastLogin": {
      "country": null,
      "latitude": null,
      "updated": null,
      "longitude": null,
      "provider": null
    },
    "familyName": "Eerens",
    "gender": "Male",
    "photos": [
      {
        "value": "https://www.example.com",
        "id": 2309,
        "type": "avatar"
      }
    ],
    "phones": [
      {
        "id": 2307,
        "number": "0600000000"
      },
      {
        "id": 2308,
        "number": "0611111111"
      }
    ],
    "password": {
      "value": "hashed-password",
      "type": "encryption-type"
    },
    "emails": [
      {
        "preferred": true,
        "verified": "2020-03-30 13:20:00 +0000",
        "address": "danny.eerens@bnnvara.nl",
        "id": 2305
      }
    ],
    "clients": [],
    "displayName": "Qbrain",
    "id": 129,
    "subscriptions": {
      "newsletters": [
        {
          "doubleOptInStatus": "Confirmed",
          "name": "DWDD",
          "id": 2310,
          "updated": "2020-03-30 13:25:00 +0000"
        }
      ]
    },
    "isBanned": false,
    "externalId": "yyyyyyyy-yyyy-yyyy-yyyy-yyyyyyyyyyyy",
    "contactNumber": "xxxxxxxx-xxxx-xxxx-xxxx-xxxxxxxxxxxx",
    "isActive": true,
    "isLite": false,
    "legalAcceptances": [
      {
        "clientId": null,
        "dateAccepted": "2020-03-30 13:22:00 +0000",
        "hasAcceptedTerms": true,
        "legalAcceptanceId": "terms",
        "id": 2306
      }
    ]
  },
  "stat": "ok"
}